<p>
c(45,45,45)
p(10.0,0.0,20.0)
p(10.0,-6.0,25.0)
p(10.0,-18.0,18.0)
</p>

<p>
c(45,45,45)
p(10.0,-25.0,6.0)
p(10.0,-17.0,10.0)
p(10.0,-18.0,18.0)
</p>

<p>
c(45,45,45)
p(10.0,0.0,20.0)
p(10.0,-18.0,18.0)
p(10.0,-17.0,10.0)
</p>

<p>
c(45,45,45)
p(10.0,6.0,25.0)
p(10.0,0.0,20.0)
p(10.0,18.0,18.0)
</p>

<p>
c(45,45,45)
p(10.0,0.0,20.0)
p(10.0,6.0,25.0)
p(10.0,-6.0,25.0)
</p>

<p>
c(45,45,45)
p(10.0,18.0,18.0)
p(10.0,17.0,10.0)
p(10.0,25.0,6.0)
</p>

<p>
c(45,45,45)
p(10.0,17.0,10.0)
p(10.0,18.0,18.0)
p(10.0,0.0,20.0)
</p>

<p>
c(45,45,45)
p(10.0,17.0,-10.0)
p(10.0,25.0,6.0)
p(10.0,17.0,10.0)
</p>

<p>
c(45,45,45)
p(10.0,-17.0,10.0)
p(10.0,-25.0,6.0)
p(10.0,-25.0,-6.0)
</p>

<p>
c(45,45,45)
p(10.0,-17.0,-10.0)
p(10.0,-25.0,-6.0)
p(10.0,-18.0,-18.0)
</p>

<p>
c(45,45,45)
p(10.0,-17.0,-10.0)
p(10.0,-18.0,-18.0)
p(10.0,0.0,-20.0)
</p>

<p>
c(45,45,45)
p(10.0,0.0,-20.0)
p(10.0,-18.0,-18.0)
p(10.0,-6.0,-25.0)
</p>

<p>
c(45,45,45)
p(10.0,25.0,-6.0)
p(10.0,17.0,-10.0)
p(10.0,18.0,-18.0)
</p>

<p>
c(45,45,45)
p(10.0,25.0,-6.0)
p(10.0,25.0,6.0)
p(10.0,17.0,-10.0)
</p>

<p>
c(45,45,45)
p(10.0,18.0,-18.0)
p(10.0,0.0,-20.0)
p(10.0,6.0,-25.0)
</p>

<p>
c(45,45,45)
p(10.0,0.0,-20.0)
p(10.0,18.0,-18.0)
p(10.0,17.0,-10.0)
</p>

<p>
c(45,45,45)
p(10.0,6.0,-25.0)
p(10.0,0.0,-20.0)
p(10.0,-6.0,-25.0)
</p>

<p>
c(45,45,45)
p(10.0,-17.0,10.0)
p(10.0,-25.0,-6.0)
p(10.0,-17.0,-10.0)
</p>

<l>
p(10.0,-18.0,18.0)
p(10.0,-25.0,6.0)
</l>

<l>
p(10.0,-25.0,6.0)
p(10.0,-25.0,-6.0)
</l>

<l>
p(10.0,-25.0,-6.0)
p(10.0,-18.0,-18.0)
</l>

<l>
p(10.0,-18.0,-18.0)
p(10.0,-6.0,-25.0)
</l>

<l>
p(10.0,-6.0,-25.0)
p(10.0,6.0,-25.0)
</l>

<l>
p(10.0,6.0,-25.0)
p(10.0,18.0,-18.0)
</l>

<l>
p(10.0,18.0,-18.0)
p(10.0,25.0,-6.0)
</l>

<l>
p(10.0,25.0,-6.0)
p(10.0,25.0,6.0)
</l>

<l>
p(10.0,25.0,6.0)
p(10.0,18.0,18.0)
</l>

<l>
p(10.0,18.0,18.0)
p(10.0,6.0,25.0)
</l>

<l>
p(10.0,6.0,25.0)
p(10.0,-6.0,25.0)
</l>

<l>
p(10.0,-6.0,25.0)
p(10.0,0.0,20.0)
</l>

<l>
p(10.0,0.0,20.0)
p(10.0,17.0,10.0)
</l>

<l>
p(10.0,17.0,10.0)
p(10.0,17.0,-10.0)
</l>

<l>
p(10.0,17.0,-10.0)
p(10.0,0.0,-20.0)
</l>

<l>
p(10.0,0.0,-20.0)
p(10.0,-17.0,-10.0)
</l>

<l>
p(10.0,-17.0,-10.0)
p(10.0,-17.0,10.0)
</l>

<l>
p(10.0,-17.0,10.0)
p(10.0,0.0,20.0)
</l>

<l>
p(10.0,0.0,20.0)
p(10.0,-6.0,25.0)
</l>

<l>
p(10.0,-6.0,25.0)
p(10.0,-18.0,18.0)
</l>

<p>
c(140,140,140)
p(5.0,0.0,0.0)
p(10.0,0.0,20.0)
p(10.0,17.0,10.0)
</p>

<l>
p(10.0,0.0,20.0)
p(10.0,17.0,10.0)
</l>

<l>
p(10.0,17.0,10.0)
p(5.0,0.0,0.0)
</l>

<l>
p(5.0,0.0,0.0)
p(10.0,0.0,20.0)
</l>

<p>
c(140,140,140)
p(10.0,17.0,-10.0)
p(5.0,0.0,0.0)
p(10.0,17.0,10.0)
</p>

<l>
p(10.0,17.0,10.0)
p(10.0,17.0,-10.0)
</l>

<l>
p(10.0,17.0,-10.0)
p(5.0,0.0,0.0)
</l>

<l>
p(5.0,0.0,0.0)
p(10.0,17.0,10.0)
</l>

<p>
c(140,140,140)
p(10.0,0.0,-20.0)
p(5.0,0.0,0.0)
p(10.0,17.0,-10.0)
</p>

<l>
p(10.0,17.0,-10.0)
p(10.0,0.0,-20.0)
</l>

<l>
p(10.0,0.0,-20.0)
p(5.0,0.0,0.0)
</l>

<l>
p(5.0,0.0,0.0)
p(10.0,17.0,-10.0)
</l>

<p>
c(140,140,140)
p(10.0,0.0,-20.0)
p(10.0,-17.0,-10.0)
p(5.0,0.0,0.0)
</p>

<l>
p(10.0,0.0,-20.0)
p(10.0,-17.0,-10.0)
</l>

<l>
p(10.0,-17.0,-10.0)
p(5.0,0.0,0.0)
</l>

<l>
p(5.0,0.0,0.0)
p(10.0,0.0,-20.0)
</l>

<p>
c(140,140,140)
p(10.0,-17.0,-10.0)
p(10.0,-17.0,10.0)
p(5.0,0.0,0.0)
</p>

<l>
p(10.0,-17.0,-10.0)
p(10.0,-17.0,10.0)
</l>

<l>
p(10.0,-17.0,10.0)
p(5.0,0.0,0.0)
</l>

<l>
p(5.0,0.0,0.0)
p(10.0,-17.0,-10.0)
</l>

<p>
c(140,140,140)
p(5.0,0.0,0.0)
p(10.0,-17.0,10.0)
p(10.0,0.0,20.0)
</p>

<l>
p(10.0,-17.0,10.0)
p(10.0,0.0,20.0)
</l>

<l>
p(10.0,0.0,20.0)
p(5.0,0.0,0.0)
</l>

<l>
p(5.0,0.0,0.0)
p(10.0,-17.0,10.0)
</l>

<p>
c(45,45,45)
p(-10.0,-25.0,-6.0)
p(-10.0,-25.0,6.0)
p(10.0,-25.0,6.0)
</p>

<p>
c(45,45,45)
p(10.0,-25.0,6.0)
p(10.0,-25.0,-6.0)
p(-10.0,-25.0,-6.0)
</p>

<p>
c(45,45,45)
p(-10.0,-18.0,-18.0)
p(-10.0,-25.0,-6.0)
p(10.0,-25.0,-6.0)
</p>

<p>
c(45,45,45)
p(10.0,-25.0,-6.0)
p(10.0,-18.0,-18.0)
p(-10.0,-18.0,-18.0)
</p>

<p>
c(45,45,45)
p(-10.0,-18.0,-18.0)
p(-10.0,-6.0,-25.0)
p(10.0,-6.0,-25.0)
</p>

<p>
c(45,45,45)
p(10.0,-6.0,-25.0)
p(10.0,-18.0,-18.0)
p(-10.0,-18.0,-18.0)
</p>

<p>
c(45,45,45)
p(-10.0,6.0,-25.0)
p(-10.0,-6.0,-25.0)
p(10.0,-6.0,-25.0)
</p>

<p>
c(45,45,45)
p(10.0,-6.0,-25.0)
p(10.0,6.0,-25.0)
p(-10.0,6.0,-25.0)
</p>

<p>
c(45,45,45)
p(-10.0,6.0,-25.0)
p(-10.0,18.0,-18.0)
p(10.0,18.0,-18.0)
</p>

<p>
c(45,45,45)
p(10.0,18.0,-18.0)
p(10.0,6.0,-25.0)
p(-10.0,6.0,-25.0)
</p>

<p>
c(45,45,45)
p(-10.0,18.0,-18.0)
p(-10.0,25.0,-6.0)
p(10.0,25.0,-6.0)
</p>

<p>
c(45,45,45)
p(10.0,25.0,-6.0)
p(10.0,18.0,-18.0)
p(-10.0,18.0,-18.0)
</p>

<p>
c(45,45,45)
p(-10.0,25.0,-6.0)
p(-10.0,25.0,6.0)
p(10.0,25.0,6.0)
</p>

<p>
c(45,45,45)
p(10.0,25.0,6.0)
p(10.0,25.0,-6.0)
p(-10.0,25.0,-6.0)
</p>

<p>
c(45,45,45)
p(-10.0,25.0,6.0)
p(-10.0,18.0,18.0)
p(10.0,18.0,18.0)
</p>

<p>
c(45,45,45)
p(10.0,18.0,18.0)
p(10.0,25.0,6.0)
p(-10.0,25.0,6.0)
</p>

<p>
c(45,45,45)
p(-10.0,6.0,25.0)
p(-10.0,18.0,18.0)
p(10.0,18.0,18.0)
</p>

<p>
c(45,45,45)
p(10.0,18.0,18.0)
p(10.0,6.0,25.0)
p(-10.0,6.0,25.0)
</p>

<p>
c(45,45,45)
p(-10.0,6.0,25.0)
p(-10.0,-6.0,25.0)
p(10.0,-6.0,25.0)
</p>

<p>
c(45,45,45)
p(10.0,-6.0,25.0)
p(10.0,6.0,25.0)
p(-10.0,6.0,25.0)
</p>

<p>
c(45,45,45)
p(-10.0,-18.0,18.0)
p(-10.0,-6.0,25.0)
p(10.0,-6.0,25.0)
</p>

<p>
c(45,45,45)
p(10.0,-6.0,25.0)
p(10.0,-18.0,18.0)
p(-10.0,-18.0,18.0)
</p>

<p>
c(45,45,45)
p(-10.0,-25.0,6.0)
p(-10.0,-18.0,18.0)
p(10.0,-18.0,18.0)
</p>

<p>
c(45,45,45)
p(10.0,-18.0,18.0)
p(10.0,-25.0,6.0)
p(-10.0,-25.0,6.0)
</p>
