<p>
c(45,45,45)
p(-16.0,0.0,25.0)
p(-16.0,-10.0,37.0)
p(-16.0,-27.0,27.0)
</p>

<p>
c(45,45,45)
p(-16.0,-37.0,10.0)
p(-16.0,-21.0,12.0)
p(-16.0,-27.0,27.0)
</p>

<p>
c(45,45,45)
p(-16.0,0.0,25.0)
p(-16.0,-27.0,27.0)
p(-16.0,-21.0,12.0)
</p>

<p>
c(45,45,45)
p(-16.0,27.0,27.0)
p(-16.0,10.0,37.0)
p(-16.0,0.0,25.0)
</p>

<p>
c(45,45,45)
p(-16.0,21.0,12.0)
p(-16.0,37.0,10.0)
p(-16.0,27.0,27.0)
</p>

<p>
c(45,45,45)
p(-16.0,21.0,-12.0)
p(-16.0,37.0,10.0)
p(-16.0,21.0,12.0)
</p>

<p>
c(45,45,45)
p(-16.0,21.0,12.0)
p(-16.0,27.0,27.0)
p(-16.0,0.0,25.0)
</p>

<p>
c(45,45,45)
p(-16.0,10.0,37.0)
p(-16.0,-10.0,37.0)
p(-16.0,0.0,25.0)
</p>

<p>
c(45,45,45)
p(-16.0,-21.0,12.0)
p(-16.0,-37.0,10.0)
p(-16.0,-37.0,-10.0)
</p>

<p>
c(45,45,45)
p(-16.0,-21.0,-12.0)
p(-16.0,-37.0,-10.0)
p(-16.0,-27.0,-27.0)
</p>

<p>
c(45,45,45)
p(-16.0,-21.0,-12.0)
p(-16.0,-27.0,-27.0)
p(-16.0,0.0,-25.0)
</p>

<p>
c(45,45,45)
p(-16.0,0.0,-25.0)
p(-16.0,-27.0,-27.0)
p(-16.0,-10.0,-37.0)
</p>

<p>
c(45,45,45)
p(-16.0,37.0,-10.0)
p(-16.0,21.0,-12.0)
p(-16.0,27.0,-27.0)
</p>

<p>
c(45,45,45)
p(-16.0,37.0,-10.0)
p(-16.0,37.0,10.0)
p(-16.0,21.0,-12.0)
</p>

<p>
c(45,45,45)
p(-16.0,0.0,-25.0)
p(-16.0,10.0,-37.0)
p(-16.0,27.0,-27.0)
</p>

<p>
c(45,45,45)
p(-16.0,10.0,-37.0)
p(-16.0,0.0,-25.0)
p(-16.0,-10.0,-37.0)
</p>

<p>
c(45,45,45)
p(-16.0,0.0,-25.0)
p(-16.0,27.0,-27.0)
p(-16.0,21.0,-12.0)
</p>

<p>
c(45,45,45)
p(-16.0,-21.0,12.0)
p(-16.0,-37.0,-10.0)
p(-16.0,-21.0,-12.0)
</p>

<l>
p(-16.0,-27.0,27.0)
p(-16.0,-37.0,10.0)
</l>

<l>
p(-16.0,-37.0,10.0)
p(-16.0,-37.0,-10.0)
</l>

<l>
p(-16.0,-37.0,-10.0)
p(-16.0,-27.0,-27.0)
</l>

<l>
p(-16.0,-27.0,-27.0)
p(-16.0,-10.0,-37.0)
</l>

<l>
p(-16.0,-10.0,-37.0)
p(-16.0,10.0,-37.0)
</l>

<l>
p(-16.0,10.0,-37.0)
p(-16.0,27.0,-27.0)
</l>

<l>
p(-16.0,27.0,-27.0)
p(-16.0,37.0,-10.0)
</l>

<l>
p(-16.0,37.0,-10.0)
p(-16.0,37.0,10.0)
</l>

<l>
p(-16.0,37.0,10.0)
p(-16.0,27.0,27.0)
</l>

<l>
p(-16.0,27.0,27.0)
p(-16.0,10.0,37.0)
</l>

<l>
p(-16.0,10.0,37.0)
p(-16.0,-10.0,37.0)
</l>

<l>
p(-16.0,-10.0,37.0)
p(-16.0,0.0,25.0)
</l>

<l>
p(-16.0,0.0,25.0)
p(-16.0,21.0,12.0)
</l>

<l>
p(-16.0,21.0,12.0)
p(-16.0,21.0,-12.0)
</l>

<l>
p(-16.0,21.0,-12.0)
p(-16.0,0.0,-25.0)
</l>

<l>
p(-16.0,0.0,-25.0)
p(-16.0,-21.0,-12.0)
</l>

<l>
p(-16.0,-21.0,-12.0)
p(-16.0,-21.0,12.0)
</l>

<l>
p(-16.0,-21.0,12.0)
p(-16.0,0.0,25.0)
</l>

<l>
p(-16.0,0.0,25.0)
p(-16.0,-10.0,37.0)
</l>

<l>
p(-16.0,-10.0,37.0)
p(-16.0,-27.0,27.0)
</l>

<p>
c(141,150,171)
p(-24.0,0.0,0.0)
p(-16.0,0.0,25.0)
p(-16.0,21.0,12.0)
</p>

<l>
p(-16.0,0.0,25.0)
p(-16.0,21.0,12.0)
</l>

<l>
p(-16.0,21.0,12.0)
p(-24.0,0.0,0.0)
</l>

<l>
p(-24.0,0.0,0.0)
p(-16.0,0.0,25.0)
</l>

<p>
c(141,150,171)
p(-16.0,21.0,-12.0)
p(-24.0,0.0,0.0)
p(-16.0,21.0,12.0)
</p>

<l>
p(-16.0,21.0,12.0)
p(-16.0,21.0,-12.0)
</l>

<l>
p(-16.0,21.0,-12.0)
p(-24.0,0.0,0.0)
</l>

<l>
p(-24.0,0.0,0.0)
p(-16.0,21.0,12.0)
</l>

<p>
c(141,150,171)
p(-16.0,0.0,-25.0)
p(-24.0,0.0,0.0)
p(-16.0,21.0,-12.0)
</p>

<l>
p(-16.0,21.0,-12.0)
p(-16.0,0.0,-25.0)
</l>

<l>
p(-16.0,0.0,-25.0)
p(-24.0,0.0,0.0)
</l>

<l>
p(-24.0,0.0,0.0)
p(-16.0,21.0,-12.0)
</l>

<p>
c(141,150,171)
p(-16.0,0.0,-25.0)
p(-16.0,-21.0,-12.0)
p(-24.0,0.0,0.0)
</p>

<l>
p(-16.0,0.0,-25.0)
p(-16.0,-21.0,-12.0)
</l>

<l>
p(-16.0,-21.0,-12.0)
p(-24.0,0.0,0.0)
</l>

<l>
p(-24.0,0.0,0.0)
p(-16.0,0.0,-25.0)
</l>

<p>
c(141,150,171)
p(-16.0,-21.0,-12.0)
p(-16.0,-21.0,12.0)
p(-24.0,0.0,0.0)
</p>

<l>
p(-16.0,-21.0,-12.0)
p(-16.0,-21.0,12.0)
</l>

<l>
p(-16.0,-21.0,12.0)
p(-24.0,0.0,0.0)
</l>

<l>
p(-24.0,0.0,0.0)
p(-16.0,-21.0,-12.0)
</l>

<p>
c(141,150,171)
p(-24.0,0.0,0.0)
p(-16.0,-21.0,12.0)
p(-16.0,0.0,25.0)
</p>

<l>
p(-16.0,-21.0,12.0)
p(-16.0,0.0,25.0)
</l>

<l>
p(-16.0,0.0,25.0)
p(-24.0,0.0,0.0)
</l>

<l>
p(-24.0,0.0,0.0)
p(-16.0,-21.0,12.0)
</l>

<p>
c(45,45,45)
p(-16.0,-37.0,-10.0)
p(-16.0,-37.0,10.0)
p(16.0,-37.0,10.0)
</p>

<p>
c(45,45,45)
p(16.0,-37.0,10.0)
p(16.0,-37.0,-10.0)
p(-16.0,-37.0,-10.0)
</p>

<p>
c(45,45,45)
p(-16.0,-27.0,-27.0)
p(-16.0,-37.0,-10.0)
p(16.0,-37.0,-10.0)
</p>

<p>
c(45,45,45)
p(16.0,-37.0,-10.0)
p(16.0,-27.0,-27.0)
p(-16.0,-27.0,-27.0)
</p>

<p>
c(45,45,45)
p(-16.0,-27.0,-27.0)
p(-16.0,-10.0,-37.0)
p(16.0,-10.0,-37.0)
</p>

<p>
c(45,45,45)
p(16.0,-10.0,-37.0)
p(16.0,-27.0,-27.0)
p(-16.0,-27.0,-27.0)
</p>

<p>
c(45,45,45)
p(-16.0,10.0,-37.0)
p(-16.0,-10.0,-37.0)
p(16.0,-10.0,-37.0)
</p>

<p>
c(45,45,45)
p(16.0,-10.0,-37.0)
p(16.0,10.0,-37.0)
p(-16.0,10.0,-37.0)
</p>

<p>
c(45,45,45)
p(-16.0,10.0,-37.0)
p(-16.0,27.0,-27.0)
p(16.0,27.0,-27.0)
</p>

<p>
c(45,45,45)
p(16.0,27.0,-27.0)
p(16.0,10.0,-37.0)
p(-16.0,10.0,-37.0)
</p>

<p>
c(45,45,45)
p(-16.0,27.0,-27.0)
p(-16.0,37.0,-10.0)
p(16.0,37.0,-10.0)
</p>

<p>
c(45,45,45)
p(16.0,37.0,-10.0)
p(16.0,27.0,-27.0)
p(-16.0,27.0,-27.0)
</p>

<p>
c(45,45,45)
p(-16.0,37.0,-10.0)
p(-16.0,37.0,10.0)
p(16.0,37.0,10.0)
</p>

<p>
c(45,45,45)
p(16.0,37.0,10.0)
p(16.0,37.0,-10.0)
p(-16.0,37.0,-10.0)
</p>

<p>
c(45,45,45)
p(-16.0,37.0,10.0)
p(-16.0,27.0,27.0)
p(16.0,27.0,27.0)
</p>

<p>
c(45,45,45)
p(16.0,27.0,27.0)
p(16.0,37.0,10.0)
p(-16.0,37.0,10.0)
</p>

<p>
c(45,45,45)
p(-16.0,10.0,37.0)
p(-16.0,27.0,27.0)
p(16.0,27.0,27.0)
</p>

<p>
c(45,45,45)
p(16.0,27.0,27.0)
p(16.0,10.0,37.0)
p(-16.0,10.0,37.0)
</p>

<p>
c(45,45,45)
p(-16.0,10.0,37.0)
p(-16.0,-10.0,37.0)
p(16.0,-10.0,37.0)
</p>

<p>
c(45,45,45)
p(16.0,-10.0,37.0)
p(16.0,10.0,37.0)
p(-16.0,10.0,37.0)
</p>

<p>
c(45,45,45)
p(-16.0,-27.0,27.0)
p(-16.0,-10.0,37.0)
p(16.0,-10.0,37.0)
</p>

<p>
c(45,45,45)
p(16.0,-10.0,37.0)
p(16.0,-27.0,27.0)
p(-16.0,-27.0,27.0)
</p>

<p>
c(45,45,45)
p(-16.0,-37.0,10.0)
p(-16.0,-27.0,27.0)
p(16.0,-27.0,27.0)
</p>

<p>
c(45,45,45)
p(16.0,-27.0,27.0)
p(16.0,-37.0,10.0)
p(-16.0,-37.0,10.0)
</p>
