<p>
c(45,45,45)
p(-12.0,-7.0,27.0)
p(-12.0,-20.0,20.0)
p(-12.0,-20.0,12.0)
</p>

<p>
c(45,45,45)
p(-12.0,-27.0,7.0)
p(-12.0,-20.0,12.0)
p(-12.0,-20.0,20.0)
</p>

<p>
c(45,45,45)
p(-12.0,-7.0,27.0)
p(-12.0,-20.0,12.0)
p(-12.0,0.0,24.0)
</p>

<p>
c(45,45,45)
p(-12.0,7.0,27.0)
p(-12.0,0.0,24.0)
p(-12.0,20.0,12.0)
</p>

<p>
c(45,45,45)
p(-12.0,0.0,24.0)
p(-12.0,7.0,27.0)
p(-12.0,-7.0,27.0)
</p>

<p>
c(45,45,45)
p(-12.0,20.0,20.0)
p(-12.0,20.0,12.0)
p(-12.0,27.0,7.0)
</p>

<p>
c(45,45,45)
p(-12.0,20.0,12.0)
p(-12.0,20.0,20.0)
p(-12.0,7.0,27.0)
</p>

<p>
c(45,45,45)
p(-12.0,20.0,12.0)
p(-12.0,20.0,-12.0)
p(-12.0,27.0,7.0)
</p>

<p>
c(45,45,45)
p(-12.0,-20.0,12.0)
p(-12.0,-27.0,7.0)
p(-12.0,-27.0,-7.0)
</p>

<p>
c(45,45,45)
p(-12.0,-20.0,-12.0)
p(-12.0,-27.0,-7.0)
p(-12.0,-20.0,-20.0)
</p>

<p>
c(45,45,45)
p(-12.0,-20.0,-20.0)
p(-12.0,-7.0,-27.0)
p(-12.0,-20.0,-12.0)
</p>

<p>
c(45,45,45)
p(-12.0,-20.0,-12.0)
p(-12.0,-7.0,-27.0)
p(-12.0,0.0,-24.0)
</p>

<p>
c(45,45,45)
p(-12.0,27.0,-7.0)
p(-12.0,20.0,-12.0)
p(-12.0,20.0,-20.0)
</p>

<p>
c(45,45,45)
p(-12.0,27.0,7.0)
p(-12.0,20.0,-12.0)
p(-12.0,27.0,-7.0)
</p>

<p>
c(45,45,45)
p(-12.0,20.0,-12.0)
p(-12.0,7.0,-27.0)
p(-12.0,20.0,-20.0)
</p>

<p>
c(45,45,45)
p(-12.0,7.0,-27.0)
p(-12.0,20.0,-12.0)
p(-12.0,0.0,-24.0)
</p>

<p>
c(45,45,45)
p(-12.0,7.0,-27.0)
p(-12.0,0.0,-24.0)
p(-12.0,-7.0,-27.0)
</p>

<p>
c(45,45,45)
p(-12.0,-20.0,12.0)
p(-12.0,-27.0,-7.0)
p(-12.0,-20.0,-12.0)
</p>

<l>
p(-12.0,-20.0,20.0)
p(-12.0,-27.0,7.0)
</l>

<l>
p(-12.0,-27.0,7.0)
p(-12.0,-27.0,-7.0)
</l>

<l>
p(-12.0,-27.0,-7.0)
p(-12.0,-20.0,-20.0)
</l>

<l>
p(-12.0,-20.0,-20.0)
p(-12.0,-7.0,-27.0)
</l>

<l>
p(-12.0,-7.0,-27.0)
p(-12.0,7.0,-27.0)
</l>

<l>
p(-12.0,7.0,-27.0)
p(-12.0,20.0,-20.0)
</l>

<l>
p(-12.0,20.0,-20.0)
p(-12.0,27.0,-7.0)
</l>

<l>
p(-12.0,27.0,-7.0)
p(-12.0,27.0,7.0)
</l>

<l>
p(-12.0,27.0,7.0)
p(-12.0,20.0,20.0)
</l>

<l>
p(-12.0,20.0,20.0)
p(-12.0,7.0,27.0)
</l>

<l>
p(-12.0,7.0,27.0)
p(-12.0,-7.0,27.0)
</l>

<l>
p(-12.0,-7.0,27.0)
p(-12.0,0.0,24.0)
</l>

<l>
p(-12.0,0.0,24.0)
p(-12.0,20.0,12.0)
</l>

<l>
p(-12.0,20.0,12.0)
p(-12.0,20.0,-12.0)
</l>

<l>
p(-12.0,20.0,-12.0)
p(-12.0,0.0,-24.0)
</l>

<l>
p(-12.0,0.0,-24.0)
p(-12.0,-20.0,-12.0)
</l>

<l>
p(-12.0,-20.0,-12.0)
p(-12.0,-20.0,12.0)
</l>

<l>
p(-12.0,-20.0,12.0)
p(-12.0,0.0,24.0)
</l>

<l>
p(-12.0,0.0,24.0)
p(-12.0,-7.0,27.0)
</l>

<l>
p(-12.0,-7.0,27.0)
p(-12.0,-20.0,20.0)
</l>

<p>
c(214,228,255)
p(-3.0,0.0,0.0)
p(-12.0,0.0,24.0)
p(-12.0,20.0,12.0)
</p>

<l>
p(-12.0,0.0,24.0)
p(-12.0,20.0,12.0)
</l>

<l>
p(-12.0,20.0,12.0)
p(-3.0,0.0,0.0)
</l>

<l>
p(-3.0,0.0,0.0)
p(-12.0,0.0,24.0)
</l>

<p>
c(214,228,255)
p(-12.0,20.0,-12.0)
p(-3.0,0.0,0.0)
p(-12.0,20.0,12.0)
</p>

<l>
p(-12.0,20.0,12.0)
p(-12.0,20.0,-12.0)
</l>

<l>
p(-12.0,20.0,-12.0)
p(-3.0,0.0,0.0)
</l>

<l>
p(-3.0,0.0,0.0)
p(-12.0,20.0,12.0)
</l>

<p>
c(214,228,255)
p(-12.0,0.0,-24.0)
p(-3.0,0.0,0.0)
p(-12.0,20.0,-12.0)
</p>

<l>
p(-12.0,20.0,-12.0)
p(-12.0,0.0,-24.0)
</l>

<l>
p(-12.0,0.0,-24.0)
p(-3.0,0.0,0.0)
</l>

<l>
p(-3.0,0.0,0.0)
p(-12.0,20.0,-12.0)
</l>

<p>
c(214,228,255)
p(-12.0,0.0,-24.0)
p(-12.0,-20.0,-12.0)
p(-3.0,0.0,0.0)
</p>

<l>
p(-12.0,0.0,-24.0)
p(-12.0,-20.0,-12.0)
</l>

<l>
p(-12.0,-20.0,-12.0)
p(-3.0,0.0,0.0)
</l>

<l>
p(-3.0,0.0,0.0)
p(-12.0,0.0,-24.0)
</l>

<p>
c(214,228,255)
p(-12.0,-20.0,-12.0)
p(-12.0,-20.0,12.0)
p(-3.0,0.0,0.0)
</p>

<l>
p(-12.0,-20.0,-12.0)
p(-12.0,-20.0,12.0)
</l>

<l>
p(-12.0,-20.0,12.0)
p(-3.0,0.0,0.0)
</l>

<l>
p(-3.0,0.0,0.0)
p(-12.0,-20.0,-12.0)
</l>

<p>
c(214,228,255)
p(-3.0,0.0,0.0)
p(-12.0,-20.0,12.0)
p(-12.0,0.0,24.0)
</p>

<l>
p(-12.0,-20.0,12.0)
p(-12.0,0.0,24.0)
</l>

<l>
p(-12.0,0.0,24.0)
p(-3.0,0.0,0.0)
</l>

<l>
p(-3.0,0.0,0.0)
p(-12.0,-20.0,12.0)
</l>

<p>
c(45,45,45)
p(-12.0,-27.0,-7.0)
p(-12.0,-27.0,7.0)
p(12.0,-27.0,7.0)
</p>

<p>
c(45,45,45)
p(12.0,-27.0,7.0)
p(12.0,-27.0,-7.0)
p(-12.0,-27.0,-7.0)
</p>

<p>
c(45,45,45)
p(-12.0,-20.0,-20.0)
p(-12.0,-27.0,-7.0)
p(12.0,-27.0,-7.0)
</p>

<p>
c(45,45,45)
p(12.0,-27.0,-7.0)
p(12.0,-20.0,-20.0)
p(-12.0,-20.0,-20.0)
</p>

<p>
c(45,45,45)
p(-12.0,-20.0,-20.0)
p(-12.0,-7.0,-27.0)
p(12.0,-7.0,-27.0)
</p>

<p>
c(45,45,45)
p(12.0,-7.0,-27.0)
p(12.0,-20.0,-20.0)
p(-12.0,-20.0,-20.0)
</p>

<p>
c(45,45,45)
p(-12.0,7.0,-27.0)
p(-12.0,-7.0,-27.0)
p(12.0,-7.0,-27.0)
</p>

<p>
c(45,45,45)
p(12.0,-7.0,-27.0)
p(12.0,7.0,-27.0)
p(-12.0,7.0,-27.0)
</p>

<p>
c(45,45,45)
p(-12.0,7.0,-27.0)
p(-12.0,20.0,-20.0)
p(12.0,20.0,-20.0)
</p>

<p>
c(45,45,45)
p(12.0,20.0,-20.0)
p(12.0,7.0,-27.0)
p(-12.0,7.0,-27.0)
</p>

<p>
c(45,45,45)
p(-12.0,20.0,-20.0)
p(-12.0,27.0,-7.0)
p(12.0,27.0,-7.0)
</p>

<p>
c(45,45,45)
p(12.0,27.0,-7.0)
p(12.0,20.0,-20.0)
p(-12.0,20.0,-20.0)
</p>

<p>
c(45,45,45)
p(-12.0,27.0,-7.0)
p(-12.0,27.0,7.0)
p(12.0,27.0,7.0)
</p>

<p>
c(45,45,45)
p(12.0,27.0,7.0)
p(12.0,27.0,-7.0)
p(-12.0,27.0,-7.0)
</p>

<p>
c(45,45,45)
p(-12.0,27.0,7.0)
p(-12.0,20.0,20.0)
p(12.0,20.0,20.0)
</p>

<p>
c(45,45,45)
p(12.0,20.0,20.0)
p(12.0,27.0,7.0)
p(-12.0,27.0,7.0)
</p>

<p>
c(45,45,45)
p(-12.0,7.0,27.0)
p(-12.0,20.0,20.0)
p(12.0,20.0,20.0)
</p>

<p>
c(45,45,45)
p(12.0,20.0,20.0)
p(12.0,7.0,27.0)
p(-12.0,7.0,27.0)
</p>

<p>
c(45,45,45)
p(-12.0,7.0,27.0)
p(-12.0,-7.0,27.0)
p(12.0,-7.0,27.0)
</p>

<p>
c(45,45,45)
p(12.0,-7.0,27.0)
p(12.0,7.0,27.0)
p(-12.0,7.0,27.0)
</p>

<p>
c(45,45,45)
p(-12.0,-20.0,20.0)
p(-12.0,-7.0,27.0)
p(12.0,-7.0,27.0)
</p>

<p>
c(45,45,45)
p(12.0,-7.0,27.0)
p(12.0,-20.0,20.0)
p(-12.0,-20.0,20.0)
</p>

<p>
c(45,45,45)
p(-12.0,-27.0,7.0)
p(-12.0,-20.0,20.0)
p(12.0,-20.0,20.0)
</p>

<p>
c(45,45,45)
p(12.0,-20.0,20.0)
p(12.0,-27.0,7.0)
p(-12.0,-27.0,7.0)
</p>
