<p>
c(45,45,45)
p(9.0,-6.0,22.0)
p(9.0,-16.0,16.0)
p(9.0,-15.0,9.0)
</p>

<p>
c(45,45,45)
p(9.0,-22.0,6.0)
p(9.0,-15.0,9.0)
p(9.0,-16.0,16.0)
</p>

<p>
c(45,45,45)
p(9.0,-6.0,22.0)
p(9.0,-15.0,9.0)
p(9.0,0.0,18.0)
</p>

<p>
c(45,45,45)
p(9.0,6.0,22.0)
p(9.0,0.0,18.0)
p(9.0,15.0,9.0)
</p>

<p>
c(45,45,45)
p(9.0,0.0,18.0)
p(9.0,6.0,22.0)
p(9.0,-6.0,22.0)
</p>

<p>
c(45,45,45)
p(9.0,16.0,16.0)
p(9.0,15.0,9.0)
p(9.0,22.0,6.0)
</p>

<p>
c(45,45,45)
p(9.0,15.0,9.0)
p(9.0,16.0,16.0)
p(9.0,6.0,22.0)
</p>

<p>
c(45,45,45)
p(9.0,15.0,-9.0)
p(9.0,22.0,6.0)
p(9.0,15.0,9.0)
</p>

<p>
c(45,45,45)
p(9.0,-15.0,9.0)
p(9.0,-22.0,6.0)
p(9.0,-22.0,-6.0)
</p>

<p>
c(45,45,45)
p(9.0,-15.0,-9.0)
p(9.0,-22.0,-6.0)
p(9.0,-16.0,-16.0)
</p>

<p>
c(45,45,45)
p(9.0,-16.0,-16.0)
p(9.0,-6.0,-22.0)
p(9.0,-15.0,-9.0)
</p>

<p>
c(45,45,45)
p(9.0,-15.0,-9.0)
p(9.0,-6.0,-22.0)
p(9.0,0.0,-18.0)
</p>

<p>
c(45,45,45)
p(9.0,22.0,-6.0)
p(9.0,15.0,-9.0)
p(9.0,16.0,-16.0)
</p>

<p>
c(45,45,45)
p(9.0,22.0,-6.0)
p(9.0,22.0,6.0)
p(9.0,15.0,-9.0)
</p>

<p>
c(45,45,45)
p(9.0,15.0,-9.0)
p(9.0,6.0,-22.0)
p(9.0,16.0,-16.0)
</p>

<p>
c(45,45,45)
p(9.0,6.0,-22.0)
p(9.0,15.0,-9.0)
p(9.0,0.0,-18.0)
</p>

<p>
c(45,45,45)
p(9.0,6.0,-22.0)
p(9.0,0.0,-18.0)
p(9.0,-6.0,-22.0)
</p>

<p>
c(45,45,45)
p(9.0,-15.0,9.0)
p(9.0,-22.0,-6.0)
p(9.0,-15.0,-9.0)
</p>

<l>
p(9.0,-16.0,16.0)
p(9.0,-22.0,6.0)
</l>

<l>
p(9.0,-22.0,6.0)
p(9.0,-22.0,-6.0)
</l>

<l>
p(9.0,-22.0,-6.0)
p(9.0,-16.0,-16.0)
</l>

<l>
p(9.0,-16.0,-16.0)
p(9.0,-6.0,-22.0)
</l>

<l>
p(9.0,-6.0,-22.0)
p(9.0,6.0,-22.0)
</l>

<l>
p(9.0,6.0,-22.0)
p(9.0,16.0,-16.0)
</l>

<l>
p(9.0,16.0,-16.0)
p(9.0,22.0,-6.0)
</l>

<l>
p(9.0,22.0,-6.0)
p(9.0,22.0,6.0)
</l>

<l>
p(9.0,22.0,6.0)
p(9.0,16.0,16.0)
</l>

<l>
p(9.0,16.0,16.0)
p(9.0,6.0,22.0)
</l>

<l>
p(9.0,6.0,22.0)
p(9.0,-6.0,22.0)
</l>

<l>
p(9.0,-6.0,22.0)
p(9.0,0.0,18.0)
</l>

<l>
p(9.0,0.0,18.0)
p(9.0,15.0,9.0)
</l>

<l>
p(9.0,15.0,9.0)
p(9.0,15.0,-9.0)
</l>

<l>
p(9.0,15.0,-9.0)
p(9.0,0.0,-18.0)
</l>

<l>
p(9.0,0.0,-18.0)
p(9.0,-15.0,-9.0)
</l>

<l>
p(9.0,-15.0,-9.0)
p(9.0,-15.0,9.0)
</l>

<l>
p(9.0,-15.0,9.0)
p(9.0,0.0,18.0)
</l>

<l>
p(9.0,0.0,18.0)
p(9.0,-6.0,22.0)
</l>

<l>
p(9.0,-6.0,22.0)
p(9.0,-16.0,16.0)
</l>

<p>
c(125,123,189)
p(4.0,0.0,0.0)
p(9.0,0.0,18.0)
p(9.0,15.0,9.0)
</p>

<l>
p(9.0,0.0,18.0)
p(9.0,15.0,9.0)
</l>

<l>
p(9.0,15.0,9.0)
p(4.0,0.0,0.0)
</l>

<l>
p(4.0,0.0,0.0)
p(9.0,0.0,18.0)
</l>

<p>
c(125,123,189)
p(9.0,15.0,-9.0)
p(4.0,0.0,0.0)
p(9.0,15.0,9.0)
</p>

<l>
p(9.0,15.0,9.0)
p(9.0,15.0,-9.0)
</l>

<l>
p(9.0,15.0,-9.0)
p(4.0,0.0,0.0)
</l>

<l>
p(4.0,0.0,0.0)
p(9.0,15.0,9.0)
</l>

<p>
c(125,123,189)
p(9.0,0.0,-18.0)
p(4.0,0.0,0.0)
p(9.0,15.0,-9.0)
</p>

<l>
p(9.0,15.0,-9.0)
p(9.0,0.0,-18.0)
</l>

<l>
p(9.0,0.0,-18.0)
p(4.0,0.0,0.0)
</l>

<l>
p(4.0,0.0,0.0)
p(9.0,15.0,-9.0)
</l>

<p>
c(125,123,189)
p(9.0,0.0,-18.0)
p(9.0,-15.0,-9.0)
p(4.0,0.0,0.0)
</p>

<l>
p(9.0,0.0,-18.0)
p(9.0,-15.0,-9.0)
</l>

<l>
p(9.0,-15.0,-9.0)
p(4.0,0.0,0.0)
</l>

<l>
p(4.0,0.0,0.0)
p(9.0,0.0,-18.0)
</l>

<p>
c(125,123,189)
p(9.0,-15.0,-9.0)
p(9.0,-15.0,9.0)
p(4.0,0.0,0.0)
</p>

<l>
p(9.0,-15.0,-9.0)
p(9.0,-15.0,9.0)
</l>

<l>
p(9.0,-15.0,9.0)
p(4.0,0.0,0.0)
</l>

<l>
p(4.0,0.0,0.0)
p(9.0,-15.0,-9.0)
</l>

<p>
c(125,123,189)
p(4.0,0.0,0.0)
p(9.0,-15.0,9.0)
p(9.0,0.0,18.0)
</p>

<l>
p(9.0,-15.0,9.0)
p(9.0,0.0,18.0)
</l>

<l>
p(9.0,0.0,18.0)
p(4.0,0.0,0.0)
</l>

<l>
p(4.0,0.0,0.0)
p(9.0,-15.0,9.0)
</l>

<p>
c(45,45,45)
p(-9.0,-22.0,-6.0)
p(-9.0,-22.0,6.0)
p(9.0,-22.0,6.0)
</p>

<p>
c(45,45,45)
p(9.0,-22.0,6.0)
p(9.0,-22.0,-6.0)
p(-9.0,-22.0,-6.0)
</p>

<p>
c(45,45,45)
p(-9.0,-16.0,-16.0)
p(-9.0,-22.0,-6.0)
p(9.0,-22.0,-6.0)
</p>

<p>
c(45,45,45)
p(9.0,-22.0,-6.0)
p(9.0,-16.0,-16.0)
p(-9.0,-16.0,-16.0)
</p>

<p>
c(45,45,45)
p(-9.0,-16.0,-16.0)
p(-9.0,-6.0,-22.0)
p(9.0,-6.0,-22.0)
</p>

<p>
c(45,45,45)
p(9.0,-6.0,-22.0)
p(9.0,-16.0,-16.0)
p(-9.0,-16.0,-16.0)
</p>

<p>
c(45,45,45)
p(-9.0,6.0,-22.0)
p(-9.0,-6.0,-22.0)
p(9.0,-6.0,-22.0)
</p>

<p>
c(45,45,45)
p(9.0,-6.0,-22.0)
p(9.0,6.0,-22.0)
p(-9.0,6.0,-22.0)
</p>

<p>
c(45,45,45)
p(-9.0,6.0,-22.0)
p(-9.0,16.0,-16.0)
p(9.0,16.0,-16.0)
</p>

<p>
c(45,45,45)
p(9.0,16.0,-16.0)
p(9.0,6.0,-22.0)
p(-9.0,6.0,-22.0)
</p>

<p>
c(45,45,45)
p(-9.0,16.0,-16.0)
p(-9.0,22.0,-6.0)
p(9.0,22.0,-6.0)
</p>

<p>
c(45,45,45)
p(9.0,22.0,-6.0)
p(9.0,16.0,-16.0)
p(-9.0,16.0,-16.0)
</p>

<p>
c(45,45,45)
p(-9.0,22.0,-6.0)
p(-9.0,22.0,6.0)
p(9.0,22.0,6.0)
</p>

<p>
c(45,45,45)
p(9.0,22.0,6.0)
p(9.0,22.0,-6.0)
p(-9.0,22.0,-6.0)
</p>

<p>
c(45,45,45)
p(-9.0,22.0,6.0)
p(-9.0,16.0,16.0)
p(9.0,16.0,16.0)
</p>

<p>
c(45,45,45)
p(9.0,16.0,16.0)
p(9.0,22.0,6.0)
p(-9.0,22.0,6.0)
</p>

<p>
c(45,45,45)
p(-9.0,6.0,22.0)
p(-9.0,16.0,16.0)
p(9.0,16.0,16.0)
</p>

<p>
c(45,45,45)
p(9.0,16.0,16.0)
p(9.0,6.0,22.0)
p(-9.0,6.0,22.0)
</p>

<p>
c(45,45,45)
p(-9.0,6.0,22.0)
p(-9.0,-6.0,22.0)
p(9.0,-6.0,22.0)
</p>

<p>
c(45,45,45)
p(9.0,-6.0,22.0)
p(9.0,6.0,22.0)
p(-9.0,6.0,22.0)
</p>

<p>
c(45,45,45)
p(-9.0,-16.0,16.0)
p(-9.0,-6.0,22.0)
p(9.0,-6.0,22.0)
</p>

<p>
c(45,45,45)
p(9.0,-6.0,22.0)
p(9.0,-16.0,16.0)
p(-9.0,-16.0,16.0)
</p>

<p>
c(45,45,45)
p(-9.0,-22.0,6.0)
p(-9.0,-16.0,16.0)
p(9.0,-16.0,16.0)
</p>

<p>
c(45,45,45)
p(9.0,-16.0,16.0)
p(9.0,-22.0,6.0)
p(-9.0,-22.0,6.0)
</p>
