<p>
c(45,45,45)
p(-12.0,-7.0,27.0)
p(-12.0,-20.0,20.0)
p(-12.0,-17.0,10.0)
</p>

<p>
c(45,45,45)
p(-12.0,-27.0,7.0)
p(-12.0,-17.0,10.0)
p(-12.0,-20.0,20.0)
</p>

<p>
c(45,45,45)
p(-12.0,-7.0,27.0)
p(-12.0,-17.0,10.0)
p(-12.0,0.0,20.0)
</p>

<p>
c(45,45,45)
p(-12.0,7.0,27.0)
p(-12.0,0.0,20.0)
p(-12.0,17.0,10.0)
</p>

<p>
c(45,45,45)
p(-12.0,0.0,20.0)
p(-12.0,7.0,27.0)
p(-12.0,-7.0,27.0)
</p>

<p>
c(45,45,45)
p(-12.0,20.0,20.0)
p(-12.0,17.0,10.0)
p(-12.0,27.0,7.0)
</p>

<p>
c(45,45,45)
p(-12.0,17.0,10.0)
p(-12.0,20.0,20.0)
p(-12.0,7.0,27.0)
</p>

<p>
c(45,45,45)
p(-12.0,17.0,-10.0)
p(-12.0,27.0,7.0)
p(-12.0,17.0,10.0)
</p>

<p>
c(45,45,45)
p(-12.0,-17.0,10.0)
p(-12.0,-27.0,7.0)
p(-12.0,-27.0,-7.0)
</p>

<p>
c(45,45,45)
p(-12.0,-17.0,-10.0)
p(-12.0,-27.0,-7.0)
p(-12.0,-20.0,-20.0)
</p>

<p>
c(45,45,45)
p(-12.0,-20.0,-20.0)
p(-12.0,-7.0,-27.0)
p(-12.0,-17.0,-10.0)
</p>

<p>
c(45,45,45)
p(-12.0,-17.0,-10.0)
p(-12.0,-7.0,-27.0)
p(-12.0,0.0,-20.0)
</p>

<p>
c(45,45,45)
p(-12.0,27.0,-7.0)
p(-12.0,17.0,-10.0)
p(-12.0,20.0,-20.0)
</p>

<p>
c(45,45,45)
p(-12.0,27.0,-7.0)
p(-12.0,27.0,7.0)
p(-12.0,17.0,-10.0)
</p>

<p>
c(45,45,45)
p(-12.0,7.0,-27.0)
p(-12.0,20.0,-20.0)
p(-12.0,17.0,-10.0)
</p>

<p>
c(45,45,45)
p(-12.0,7.0,-27.0)
p(-12.0,0.0,-20.0)
p(-12.0,-7.0,-27.0)
</p>

<p>
c(45,45,45)
p(-12.0,7.0,-27.0)
p(-12.0,17.0,-10.0)
p(-12.0,0.0,-20.0)
</p>

<p>
c(45,45,45)
p(-12.0,-17.0,10.0)
p(-12.0,-27.0,-7.0)
p(-12.0,-17.0,-10.0)
</p>

<l>
p(-12.0,-20.0,20.0)
p(-12.0,-27.0,7.0)
</l>

<l>
p(-12.0,-27.0,7.0)
p(-12.0,-27.0,-7.0)
</l>

<l>
p(-12.0,-27.0,-7.0)
p(-12.0,-20.0,-20.0)
</l>

<l>
p(-12.0,-20.0,-20.0)
p(-12.0,-7.0,-27.0)
</l>

<l>
p(-12.0,-7.0,-27.0)
p(-12.0,7.0,-27.0)
</l>

<l>
p(-12.0,7.0,-27.0)
p(-12.0,20.0,-20.0)
</l>

<l>
p(-12.0,20.0,-20.0)
p(-12.0,27.0,-7.0)
</l>

<l>
p(-12.0,27.0,-7.0)
p(-12.0,27.0,7.0)
</l>

<l>
p(-12.0,27.0,7.0)
p(-12.0,20.0,20.0)
</l>

<l>
p(-12.0,20.0,20.0)
p(-12.0,7.0,27.0)
</l>

<l>
p(-12.0,7.0,27.0)
p(-12.0,-7.0,27.0)
</l>

<l>
p(-12.0,-7.0,27.0)
p(-12.0,0.0,20.0)
</l>

<l>
p(-12.0,0.0,20.0)
p(-12.0,17.0,10.0)
</l>

<l>
p(-12.0,17.0,10.0)
p(-12.0,17.0,-10.0)
</l>

<l>
p(-12.0,17.0,-10.0)
p(-12.0,0.0,-20.0)
</l>

<l>
p(-12.0,0.0,-20.0)
p(-12.0,-17.0,-10.0)
</l>

<l>
p(-12.0,-17.0,-10.0)
p(-12.0,-17.0,10.0)
</l>

<l>
p(-12.0,-17.0,10.0)
p(-12.0,0.0,20.0)
</l>

<l>
p(-12.0,0.0,20.0)
p(-12.0,-7.0,27.0)
</l>

<l>
p(-12.0,-7.0,27.0)
p(-12.0,-20.0,20.0)
</l>

<p>
c(160,160,160)
p(-9.0,0.0,0.0)
p(-12.0,0.0,20.0)
p(-12.0,17.0,10.0)
</p>

<l>
p(-12.0,0.0,20.0)
p(-12.0,17.0,10.0)
</l>

<l>
p(-12.0,17.0,10.0)
p(-9.0,0.0,0.0)
</l>

<l>
p(-9.0,0.0,0.0)
p(-12.0,0.0,20.0)
</l>

<p>
c(160,160,160)
p(-12.0,17.0,-10.0)
p(-9.0,0.0,0.0)
p(-12.0,17.0,10.0)
</p>

<l>
p(-12.0,17.0,10.0)
p(-12.0,17.0,-10.0)
</l>

<l>
p(-12.0,17.0,-10.0)
p(-9.0,0.0,0.0)
</l>

<l>
p(-9.0,0.0,0.0)
p(-12.0,17.0,10.0)
</l>

<p>
c(160,160,160)
p(-12.0,0.0,-20.0)
p(-9.0,0.0,0.0)
p(-12.0,17.0,-10.0)
</p>

<l>
p(-12.0,17.0,-10.0)
p(-12.0,0.0,-20.0)
</l>

<l>
p(-12.0,0.0,-20.0)
p(-9.0,0.0,0.0)
</l>

<l>
p(-9.0,0.0,0.0)
p(-12.0,17.0,-10.0)
</l>

<p>
c(160,160,160)
p(-12.0,0.0,-20.0)
p(-12.0,-17.0,-10.0)
p(-9.0,0.0,0.0)
</p>

<l>
p(-12.0,0.0,-20.0)
p(-12.0,-17.0,-10.0)
</l>

<l>
p(-12.0,-17.0,-10.0)
p(-9.0,0.0,0.0)
</l>

<l>
p(-9.0,0.0,0.0)
p(-12.0,0.0,-20.0)
</l>

<p>
c(160,160,160)
p(-12.0,-17.0,-10.0)
p(-12.0,-17.0,10.0)
p(-9.0,0.0,0.0)
</p>

<l>
p(-12.0,-17.0,-10.0)
p(-12.0,-17.0,10.0)
</l>

<l>
p(-12.0,-17.0,10.0)
p(-9.0,0.0,0.0)
</l>

<l>
p(-9.0,0.0,0.0)
p(-12.0,-17.0,-10.0)
</l>

<p>
c(160,160,160)
p(-9.0,0.0,0.0)
p(-12.0,-17.0,10.0)
p(-12.0,0.0,20.0)
</p>

<l>
p(-12.0,-17.0,10.0)
p(-12.0,0.0,20.0)
</l>

<l>
p(-12.0,0.0,20.0)
p(-9.0,0.0,0.0)
</l>

<l>
p(-9.0,0.0,0.0)
p(-12.0,-17.0,10.0)
</l>

<p>
c(45,45,45)
p(-12.0,-27.0,-7.0)
p(-12.0,-27.0,7.0)
p(12.0,-27.0,7.0)
</p>

<p>
c(45,45,45)
p(12.0,-27.0,7.0)
p(12.0,-27.0,-7.0)
p(-12.0,-27.0,-7.0)
</p>

<p>
c(45,45,45)
p(-12.0,-20.0,-20.0)
p(-12.0,-27.0,-7.0)
p(12.0,-27.0,-7.0)
</p>

<p>
c(45,45,45)
p(12.0,-27.0,-7.0)
p(12.0,-20.0,-20.0)
p(-12.0,-20.0,-20.0)
</p>

<p>
c(45,45,45)
p(-12.0,-20.0,-20.0)
p(-12.0,-7.0,-27.0)
p(12.0,-7.0,-27.0)
</p>

<p>
c(45,45,45)
p(12.0,-7.0,-27.0)
p(12.0,-20.0,-20.0)
p(-12.0,-20.0,-20.0)
</p>

<p>
c(45,45,45)
p(-12.0,7.0,-27.0)
p(-12.0,-7.0,-27.0)
p(12.0,-7.0,-27.0)
</p>

<p>
c(45,45,45)
p(12.0,-7.0,-27.0)
p(12.0,7.0,-27.0)
p(-12.0,7.0,-27.0)
</p>

<p>
c(45,45,45)
p(-12.0,7.0,-27.0)
p(-12.0,20.0,-20.0)
p(12.0,20.0,-20.0)
</p>

<p>
c(45,45,45)
p(12.0,20.0,-20.0)
p(12.0,7.0,-27.0)
p(-12.0,7.0,-27.0)
</p>

<p>
c(45,45,45)
p(-12.0,20.0,-20.0)
p(-12.0,27.0,-7.0)
p(12.0,27.0,-7.0)
</p>

<p>
c(45,45,45)
p(12.0,27.0,-7.0)
p(12.0,20.0,-20.0)
p(-12.0,20.0,-20.0)
</p>

<p>
c(45,45,45)
p(-12.0,27.0,-7.0)
p(-12.0,27.0,7.0)
p(12.0,27.0,7.0)
</p>

<p>
c(45,45,45)
p(12.0,27.0,7.0)
p(12.0,27.0,-7.0)
p(-12.0,27.0,-7.0)
</p>

<p>
c(45,45,45)
p(-12.0,27.0,7.0)
p(-12.0,20.0,20.0)
p(12.0,20.0,20.0)
</p>

<p>
c(45,45,45)
p(12.0,20.0,20.0)
p(12.0,27.0,7.0)
p(-12.0,27.0,7.0)
</p>

<p>
c(45,45,45)
p(-12.0,7.0,27.0)
p(-12.0,20.0,20.0)
p(12.0,20.0,20.0)
</p>

<p>
c(45,45,45)
p(12.0,20.0,20.0)
p(12.0,7.0,27.0)
p(-12.0,7.0,27.0)
</p>

<p>
c(45,45,45)
p(-12.0,7.0,27.0)
p(-12.0,-7.0,27.0)
p(12.0,-7.0,27.0)
</p>

<p>
c(45,45,45)
p(12.0,-7.0,27.0)
p(12.0,7.0,27.0)
p(-12.0,7.0,27.0)
</p>

<p>
c(45,45,45)
p(-12.0,-20.0,20.0)
p(-12.0,-7.0,27.0)
p(12.0,-7.0,27.0)
</p>

<p>
c(45,45,45)
p(12.0,-7.0,27.0)
p(12.0,-20.0,20.0)
p(-12.0,-20.0,20.0)
</p>

<p>
c(45,45,45)
p(-12.0,-27.0,7.0)
p(-12.0,-20.0,20.0)
p(12.0,-20.0,20.0)
</p>

<p>
c(45,45,45)
p(12.0,-20.0,20.0)
p(12.0,-27.0,7.0)
p(-12.0,-27.0,7.0)
</p>
