<p>
c(45,45,45)
p(11.0,-8.0,30.0)
p(11.0,-22.0,22.0)
p(11.0,-17.0,10.0)
</p>

<p>
c(45,45,45)
p(11.0,-30.0,8.0)
p(11.0,-17.0,10.0)
p(11.0,-22.0,22.0)
</p>

<p>
c(45,45,45)
p(11.0,-8.0,30.0)
p(11.0,-17.0,10.0)
p(11.0,0.0,20.0)
</p>

<p>
c(45,45,45)
p(11.0,22.0,22.0)
p(11.0,8.0,30.0)
p(11.0,17.0,10.0)
</p>

<p>
c(45,45,45)
p(11.0,17.0,10.0)
p(11.0,30.0,8.0)
p(11.0,22.0,22.0)
</p>

<p>
c(45,45,45)
p(11.0,17.0,-10.0)
p(11.0,30.0,8.0)
p(11.0,17.0,10.0)
</p>

<p>
c(45,45,45)
p(11.0,17.0,10.0)
p(11.0,8.0,30.0)
p(11.0,0.0,20.0)
</p>

<p>
c(45,45,45)
p(11.0,8.0,30.0)
p(11.0,-8.0,30.0)
p(11.0,0.0,20.0)
</p>

<p>
c(45,45,45)
p(11.0,-17.0,10.0)
p(11.0,-30.0,8.0)
p(11.0,-30.0,-8.0)
</p>

<p>
c(45,45,45)
p(11.0,-17.0,-10.0)
p(11.0,-30.0,-8.0)
p(11.0,-22.0,-22.0)
</p>

<p>
c(45,45,45)
p(11.0,-22.0,-22.0)
p(11.0,-8.0,-30.0)
p(11.0,-17.0,-10.0)
</p>

<p>
c(45,45,45)
p(11.0,-17.0,-10.0)
p(11.0,-8.0,-30.0)
p(11.0,0.0,-20.0)
</p>

<p>
c(45,45,45)
p(11.0,30.0,-8.0)
p(11.0,17.0,-10.0)
p(11.0,22.0,-22.0)
</p>

<p>
c(45,45,45)
p(11.0,30.0,-8.0)
p(11.0,30.0,8.0)
p(11.0,17.0,-10.0)
</p>

<p>
c(45,45,45)
p(11.0,8.0,-30.0)
p(11.0,22.0,-22.0)
p(11.0,17.0,-10.0)
</p>

<p>
c(45,45,45)
p(11.0,8.0,-30.0)
p(11.0,0.0,-20.0)
p(11.0,-8.0,-30.0)
</p>

<p>
c(45,45,45)
p(11.0,8.0,-30.0)
p(11.0,17.0,-10.0)
p(11.0,0.0,-20.0)
</p>

<p>
c(45,45,45)
p(11.0,-17.0,10.0)
p(11.0,-30.0,-8.0)
p(11.0,-17.0,-10.0)
</p>

<l>
p(11.0,-22.0,22.0)
p(11.0,-30.0,8.0)
</l>

<l>
p(11.0,-30.0,8.0)
p(11.0,-30.0,-8.0)
</l>

<l>
p(11.0,-30.0,-8.0)
p(11.0,-22.0,-22.0)
</l>

<l>
p(11.0,-22.0,-22.0)
p(11.0,-8.0,-30.0)
</l>

<l>
p(11.0,-8.0,-30.0)
p(11.0,8.0,-30.0)
</l>

<l>
p(11.0,8.0,-30.0)
p(11.0,22.0,-22.0)
</l>

<l>
p(11.0,22.0,-22.0)
p(11.0,30.0,-8.0)
</l>

<l>
p(11.0,30.0,-8.0)
p(11.0,30.0,8.0)
</l>

<l>
p(11.0,30.0,8.0)
p(11.0,22.0,22.0)
</l>

<l>
p(11.0,22.0,22.0)
p(11.0,8.0,30.0)
</l>

<l>
p(11.0,8.0,30.0)
p(11.0,-8.0,30.0)
</l>

<l>
p(11.0,-8.0,30.0)
p(11.0,0.0,20.0)
</l>

<l>
p(11.0,0.0,20.0)
p(11.0,17.0,10.0)
</l>

<l>
p(11.0,17.0,10.0)
p(11.0,17.0,-10.0)
</l>

<l>
p(11.0,17.0,-10.0)
p(11.0,0.0,-20.0)
</l>

<l>
p(11.0,0.0,-20.0)
p(11.0,-17.0,-10.0)
</l>

<l>
p(11.0,-17.0,-10.0)
p(11.0,-17.0,10.0)
</l>

<l>
p(11.0,-17.0,10.0)
p(11.0,0.0,20.0)
</l>

<l>
p(11.0,0.0,20.0)
p(11.0,-8.0,30.0)
</l>

<l>
p(11.0,-8.0,30.0)
p(11.0,-22.0,22.0)
</l>

<p>
c(128,118,56)
p(8.0,0.0,0.0)
p(11.0,0.0,20.0)
p(11.0,17.0,10.0)
</p>

<l>
p(11.0,0.0,20.0)
p(11.0,17.0,10.0)
</l>

<l>
p(11.0,17.0,10.0)
p(8.0,0.0,0.0)
</l>

<l>
p(8.0,0.0,0.0)
p(11.0,0.0,20.0)
</l>

<p>
c(128,118,56)
p(11.0,17.0,-10.0)
p(8.0,0.0,0.0)
p(11.0,17.0,10.0)
</p>

<l>
p(11.0,17.0,10.0)
p(11.0,17.0,-10.0)
</l>

<l>
p(11.0,17.0,-10.0)
p(8.0,0.0,0.0)
</l>

<l>
p(8.0,0.0,0.0)
p(11.0,17.0,10.0)
</l>

<p>
c(128,118,56)
p(11.0,0.0,-20.0)
p(8.0,0.0,0.0)
p(11.0,17.0,-10.0)
</p>

<l>
p(11.0,17.0,-10.0)
p(11.0,0.0,-20.0)
</l>

<l>
p(11.0,0.0,-20.0)
p(8.0,0.0,0.0)
</l>

<l>
p(8.0,0.0,0.0)
p(11.0,17.0,-10.0)
</l>

<p>
c(128,118,56)
p(11.0,0.0,-20.0)
p(11.0,-17.0,-10.0)
p(8.0,0.0,0.0)
</p>

<l>
p(11.0,0.0,-20.0)
p(11.0,-17.0,-10.0)
</l>

<l>
p(11.0,-17.0,-10.0)
p(8.0,0.0,0.0)
</l>

<l>
p(8.0,0.0,0.0)
p(11.0,0.0,-20.0)
</l>

<p>
c(128,118,56)
p(11.0,-17.0,-10.0)
p(11.0,-17.0,10.0)
p(8.0,0.0,0.0)
</p>

<l>
p(11.0,-17.0,-10.0)
p(11.0,-17.0,10.0)
</l>

<l>
p(11.0,-17.0,10.0)
p(8.0,0.0,0.0)
</l>

<l>
p(8.0,0.0,0.0)
p(11.0,-17.0,-10.0)
</l>

<p>
c(128,118,56)
p(8.0,0.0,0.0)
p(11.0,-17.0,10.0)
p(11.0,0.0,20.0)
</p>

<l>
p(11.0,-17.0,10.0)
p(11.0,0.0,20.0)
</l>

<l>
p(11.0,0.0,20.0)
p(8.0,0.0,0.0)
</l>

<l>
p(8.0,0.0,0.0)
p(11.0,-17.0,10.0)
</l>

<p>
c(45,45,45)
p(-11.0,-30.0,-8.0)
p(-11.0,-30.0,8.0)
p(11.0,-30.0,8.0)
</p>

<p>
c(45,45,45)
p(11.0,-30.0,8.0)
p(11.0,-30.0,-8.0)
p(-11.0,-30.0,-8.0)
</p>

<p>
c(45,45,45)
p(-11.0,-22.0,-22.0)
p(-11.0,-30.0,-8.0)
p(11.0,-30.0,-8.0)
</p>

<p>
c(45,45,45)
p(11.0,-30.0,-8.0)
p(11.0,-22.0,-22.0)
p(-11.0,-22.0,-22.0)
</p>

<p>
c(45,45,45)
p(-11.0,-22.0,-22.0)
p(-11.0,-8.0,-30.0)
p(11.0,-8.0,-30.0)
</p>

<p>
c(45,45,45)
p(11.0,-8.0,-30.0)
p(11.0,-22.0,-22.0)
p(-11.0,-22.0,-22.0)
</p>

<p>
c(45,45,45)
p(-11.0,8.0,-30.0)
p(-11.0,-8.0,-30.0)
p(11.0,-8.0,-30.0)
</p>

<p>
c(45,45,45)
p(11.0,-8.0,-30.0)
p(11.0,8.0,-30.0)
p(-11.0,8.0,-30.0)
</p>

<p>
c(45,45,45)
p(-11.0,8.0,-30.0)
p(-11.0,22.0,-22.0)
p(11.0,22.0,-22.0)
</p>

<p>
c(45,45,45)
p(11.0,22.0,-22.0)
p(11.0,8.0,-30.0)
p(-11.0,8.0,-30.0)
</p>

<p>
c(45,45,45)
p(-11.0,22.0,-22.0)
p(-11.0,30.0,-8.0)
p(11.0,30.0,-8.0)
</p>

<p>
c(45,45,45)
p(11.0,30.0,-8.0)
p(11.0,22.0,-22.0)
p(-11.0,22.0,-22.0)
</p>

<p>
c(45,45,45)
p(-11.0,30.0,-8.0)
p(-11.0,30.0,8.0)
p(11.0,30.0,8.0)
</p>

<p>
c(45,45,45)
p(11.0,30.0,8.0)
p(11.0,30.0,-8.0)
p(-11.0,30.0,-8.0)
</p>

<p>
c(45,45,45)
p(-11.0,30.0,8.0)
p(-11.0,22.0,22.0)
p(11.0,22.0,22.0)
</p>

<p>
c(45,45,45)
p(11.0,22.0,22.0)
p(11.0,30.0,8.0)
p(-11.0,30.0,8.0)
</p>

<p>
c(45,45,45)
p(-11.0,8.0,30.0)
p(-11.0,22.0,22.0)
p(11.0,22.0,22.0)
</p>

<p>
c(45,45,45)
p(11.0,22.0,22.0)
p(11.0,8.0,30.0)
p(-11.0,8.0,30.0)
</p>

<p>
c(45,45,45)
p(-11.0,8.0,30.0)
p(-11.0,-8.0,30.0)
p(11.0,-8.0,30.0)
</p>

<p>
c(45,45,45)
p(11.0,-8.0,30.0)
p(11.0,8.0,30.0)
p(-11.0,8.0,30.0)
</p>

<p>
c(45,45,45)
p(-11.0,-22.0,22.0)
p(-11.0,-8.0,30.0)
p(11.0,-8.0,30.0)
</p>

<p>
c(45,45,45)
p(11.0,-8.0,30.0)
p(11.0,-22.0,22.0)
p(-11.0,-22.0,22.0)
</p>

<p>
c(45,45,45)
p(-11.0,-30.0,8.0)
p(-11.0,-22.0,22.0)
p(11.0,-22.0,22.0)
</p>

<p>
c(45,45,45)
p(11.0,-22.0,22.0)
p(11.0,-30.0,8.0)
p(-11.0,-30.0,8.0)
</p>
